org\openapitools\client\StringUtil.class
org\openapitools\client\ApiResponse.class
org\openapitools\client\model\KanjiDetailsKanjiVideo.class
org\openapitools\client\GzipRequestInterceptor.class
org\openapitools\client\model\KanjiDetailsKanjiMeaning.class
org\openapitools\client\JSON$1.class
org\openapitools\client\model\KanjiDetailsRadicalPosition.class
org\openapitools\client\ApiClient$3.class
org\openapitools\client\Pair.class
org\openapitools\client\JSON$OffsetDateTimeTypeAdapter.class
org\openapitools\client\api\KanjiAliveApi$2.class
org\openapitools\client\model\KanjiObjectKanji.class
org\openapitools\client\ApiException.class
org\openapitools\client\JSON$DateTypeAdapter.class
org\openapitools\client\JSON$SqlDateTypeAdapter.class
org\openapitools\client\api\KanjiAliveApi.class
org\openapitools\client\model\KanjiDetailsKanjiStrokes.class
org\openapitools\client\api\KanjiAliveApi$4.class
org\openapitools\client\GzipRequestInterceptor$1.class
org\openapitools\client\model\KanjiObjectRadical.class
org\openapitools\client\model\KanjiDetailsKanji.class
org\openapitools\client\ApiClient$2.class
org\openapitools\client\api\KanjiAliveApi$1.class
org\openapitools\client\model\KanjiDetailsReferences.class
org\openapitools\client\model\KanjiObject.class
org\openapitools\client\auth\HttpBasicAuth.class
org\openapitools\client\ProgressRequestBody.class
org\openapitools\client\ApiCallback.class
org\openapitools\client\ApiClient.class
org\openapitools\client\api\KanjiAliveApi$3.class
org\openapitools\client\model\KanjiDetailsKanjiOnyomi.class
org\openapitools\client\JSON$LocalDateTypeAdapter.class
org\openapitools\client\ServerVariable.class
org\openapitools\client\ApiClient$1.class
org\openapitools\client\auth\Authentication.class
org\openapitools\client\ProgressRequestBody$1.class
org\openapitools\client\model\KanjiDetailsKanjiKunyomi.class
org\openapitools\client\JSON.class
org\openapitools\client\ProgressResponseBody.class
org\openapitools\client\auth\ApiKeyAuth.class
org\openapitools\client\model\KanjiDetailsRadicalName.class
org\openapitools\client\model\KanjiDetails.class
org\openapitools\client\ProgressResponseBody$1.class
org\openapitools\client\ServerConfiguration.class
org\openapitools\client\Configuration.class
org\openapitools\client\model\KanjiDetailsAudio.class
org\openapitools\client\model\KanjiDetailsRadical.class
org\openapitools\client\auth\HttpBearerAuth.class
org\openapitools\client\model\KanjiDetailsExamples.class
org\openapitools\client\GzipRequestInterceptor$2.class
org\openapitools\client\ApiClient$4.class
org\openapitools\client\JSON$ByteArrayAdapter.class
